{
  "Version": "2012-10-17",
  "Statement": [
    {
      "Action": "sts:AssumeRole",
      "Principal": {
        "Service": "ecs-tasks.amazonaws.com"
      },
      "Effect": "Allow"
    }
  ]
}
